digraph "Proto_Abstract/Assets" {
  compound=true
  node [ fontsize="10", fontname="Helvetica"];
  edge [ labelfontsize="10", labelfontname="Helvetica"];
  subgraph clusterdir_3802783ecce8dae94840ec03cc879eb6 {
    graph [ bgcolor="#ddddee", pencolor="black", label="Proto_Abstract" fontname="Helvetica", fontsize="10", URL="dir_3802783ecce8dae94840ec03cc879eb6.html"]
  subgraph clusterdir_5dea6e5fc4739320e7326757a0f9f51d {
    graph [ bgcolor="#eeeeff", pencolor="black", label="" URL="dir_5dea6e5fc4739320e7326757a0f9f51d.html"];
    dir_5dea6e5fc4739320e7326757a0f9f51d [shape=plaintext label="Assets"];
    dir_b5868882360002f2df6e2cd2d7b42fd9 [shape=box label="Scripts" color="red" fillcolor="white" style="filled" URL="dir_b5868882360002f2df6e2cd2d7b42fd9.html"];
  }
  }
}
