digraph "Proto_Abstract/Assets/Scripts/MainMenu" {
  compound=true
  node [ fontsize="10", fontname="Helvetica"];
  edge [ labelfontsize="10", labelfontname="Helvetica"];
  subgraph clusterdir_b5868882360002f2df6e2cd2d7b42fd9 {
    graph [ bgcolor="#ddddee", pencolor="black", label="Scripts" fontname="Helvetica", fontsize="10", URL="dir_b5868882360002f2df6e2cd2d7b42fd9.html"]
  dir_8c5550911a2ed8624b22cdb86dfddcab [shape=box, label="MainMenu", style="filled", fillcolor="#eeeeff", pencolor="black", URL="dir_8c5550911a2ed8624b22cdb86dfddcab.html"];
  }
}
